%YAML 1.1
%TAG !u! tag:unity3d.com,2011:
--- !u!74 &7400000
AnimationClip:
  m_ObjectHideFlags: 0
  m_CorrespondingSourceObject: {fileID: 0}
  m_PrefabInstance: {fileID: 0}
  m_PrefabAsset: {fileID: 0}
  m_Name: Warrior_Attack_Right
  serializedVersion: 6
  m_Legacy: 0
  m_Compressed: 0
  m_UseHighQualityCurve: 1
  m_RotationCurves: []
  m_CompressedRotationCurves: []
  m_EulerCurves: []
  m_PositionCurves: []
  m_ScaleCurves: []
  m_FloatCurves: []
  m_PPtrCurves:
  - curve:
    - time: 0
      value: {fileID: 8450462872591222330, guid: fe7474904806e5c48bcd71fd95d5286e,
        type: 3}
    - time: 0.1
      value: {fileID: -6608577762926221168, guid: fe7474904806e5c48bcd71fd95d5286e,
        type: 3}
    - time: 0.2
      value: {fileID: 6190563556001593102, guid: fe7474904806e5c48bcd71fd95d5286e,
        type: 3}
    - time: 0.3
      value: {fileID: 2330679905135754885, guid: fe7474904806e5c48bcd71fd95d5286e,
        type: 3}
    - time: 0.4
      value: {fileID: 5049570624757180112, guid: fe7474904806e5c48bcd71fd95d5286e,
        type: 3}
    - time: 0.5
      value: {fileID: 6507144221218824024, guid: fe7474904806e5c48bcd71fd95d5286e,
        type: 3}
    - time: 0.6
      value: {fileID: 2706737114819750708, guid: fe7474904806e5c48bcd71fd95d5286e,
        type: 3}
    - time: 0.7
      value: {fileID: 5121410234986180282, guid: fe7474904806e5c48bcd71fd95d5286e,
        type: 3}
    attribute: m_Sprite
    path: 
    classID: 212
    script: {fileID: 0}
  m_SampleRate: 10
  m_WrapMode: 0
  m_Bounds:
    m_Center: {x: 0, y: 0, z: 0}
    m_Extent: {x: 0, y: 0, z: 0}
  m_ClipBindingConstant:
    genericBindings:
    - serializedVersion: 2
      path: 0
      attribute: 0
      script: {fileID: 0}
      typeID: 212
      customType: 23
      isPPtrCurve: 1
    pptrCurveMapping:
    - {fileID: 8450462872591222330, guid: fe7474904806e5c48bcd71fd95d5286e, type: 3}
    - {fileID: -6608577762926221168, guid: fe7474904806e5c48bcd71fd95d5286e, type: 3}
    - {fileID: 6190563556001593102, guid: fe7474904806e5c48bcd71fd95d5286e, type: 3}
    - {fileID: 2330679905135754885, guid: fe7474904806e5c48bcd71fd95d5286e, type: 3}
    - {fileID: 5049570624757180112, guid: fe7474904806e5c48bcd71fd95d5286e, type: 3}
    - {fileID: 6507144221218824024, guid: fe7474904806e5c48bcd71fd95d5286e, type: 3}
    - {fileID: 2706737114819750708, guid: fe7474904806e5c48bcd71fd95d5286e, type: 3}
    - {fileID: 5121410234986180282, guid: fe7474904806e5c48bcd71fd95d5286e, type: 3}
  m_AnimationClipSettings:
    serializedVersion: 2
    m_AdditiveReferencePoseClip: {fileID: 0}
    m_AdditiveReferencePoseTime: 0
    m_StartTime: 0
    m_StopTime: 0.8
    m_OrientationOffsetY: 0
    m_Level: 0
    m_CycleOffset: 0
    m_HasAdditiveReferencePose: 0
    m_LoopTime: 1
    m_LoopBlend: 0
    m_LoopBlendOrientation: 0
    m_LoopBlendPositionY: 0
    m_LoopBlendPositionXZ: 0
    m_KeepOriginalOrientation: 0
    m_KeepOriginalPositionY: 1
    m_KeepOriginalPositionXZ: 0
    m_HeightFromFeet: 0
    m_Mirror: 0
  m_EditorCurves: []
  m_EulerEditorCurves: []
  m_HasGenericRootTransform: 0
  m_HasMotionFloatCurves: 0
  m_Events: []
