%YAML 1.1
%TAG !u! tag:unity3d.com,2011:
--- !u!74 &7400000
AnimationClip:
  m_ObjectHideFlags: 0
  m_CorrespondingSourceObject: {fileID: 0}
  m_PrefabInstance: {fileID: 0}
  m_PrefabAsset: {fileID: 0}
  m_Name: Warrior_Attack_Left
  serializedVersion: 6
  m_Legacy: 0
  m_Compressed: 0
  m_UseHighQualityCurve: 1
  m_RotationCurves: []
  m_CompressedRotationCurves: []
  m_EulerCurves: []
  m_PositionCurves: []
  m_ScaleCurves: []
  m_FloatCurves: []
  m_PPtrCurves:
  - curve:
    - time: 0
      value: {fileID: 7658761812516873127, guid: 7cfabc5a9c358f44794e0ce613ba6b10,
        type: 3}
    - time: 0.1
      value: {fileID: 1139751258132291234, guid: 7cfabc5a9c358f44794e0ce613ba6b10,
        type: 3}
    - time: 0.2
      value: {fileID: 3518160498282404968, guid: 7cfabc5a9c358f44794e0ce613ba6b10,
        type: 3}
    - time: 0.3
      value: {fileID: 3495326039119529428, guid: 7cfabc5a9c358f44794e0ce613ba6b10,
        type: 3}
    - time: 0.4
      value: {fileID: 535948703183468954, guid: 7cfabc5a9c358f44794e0ce613ba6b10,
        type: 3}
    - time: 0.5
      value: {fileID: -6690709815294107611, guid: 7cfabc5a9c358f44794e0ce613ba6b10,
        type: 3}
    - time: 0.6
      value: {fileID: -9111980277232653394, guid: 7cfabc5a9c358f44794e0ce613ba6b10,
        type: 3}
    - time: 0.7
      value: {fileID: -294480042293939479, guid: 7cfabc5a9c358f44794e0ce613ba6b10,
        type: 3}
    attribute: m_Sprite
    path: 
    classID: 212
    script: {fileID: 0}
  m_SampleRate: 10
  m_WrapMode: 0
  m_Bounds:
    m_Center: {x: 0, y: 0, z: 0}
    m_Extent: {x: 0, y: 0, z: 0}
  m_ClipBindingConstant:
    genericBindings:
    - serializedVersion: 2
      path: 0
      attribute: 0
      script: {fileID: 0}
      typeID: 212
      customType: 23
      isPPtrCurve: 1
    pptrCurveMapping:
    - {fileID: 7658761812516873127, guid: 7cfabc5a9c358f44794e0ce613ba6b10, type: 3}
    - {fileID: 1139751258132291234, guid: 7cfabc5a9c358f44794e0ce613ba6b10, type: 3}
    - {fileID: 3518160498282404968, guid: 7cfabc5a9c358f44794e0ce613ba6b10, type: 3}
    - {fileID: 3495326039119529428, guid: 7cfabc5a9c358f44794e0ce613ba6b10, type: 3}
    - {fileID: 535948703183468954, guid: 7cfabc5a9c358f44794e0ce613ba6b10, type: 3}
    - {fileID: -6690709815294107611, guid: 7cfabc5a9c358f44794e0ce613ba6b10, type: 3}
    - {fileID: -9111980277232653394, guid: 7cfabc5a9c358f44794e0ce613ba6b10, type: 3}
    - {fileID: -294480042293939479, guid: 7cfabc5a9c358f44794e0ce613ba6b10, type: 3}
  m_AnimationClipSettings:
    serializedVersion: 2
    m_AdditiveReferencePoseClip: {fileID: 0}
    m_AdditiveReferencePoseTime: 0
    m_StartTime: 0
    m_StopTime: 0.8
    m_OrientationOffsetY: 0
    m_Level: 0
    m_CycleOffset: 0
    m_HasAdditiveReferencePose: 0
    m_LoopTime: 1
    m_LoopBlend: 0
    m_LoopBlendOrientation: 0
    m_LoopBlendPositionY: 0
    m_LoopBlendPositionXZ: 0
    m_KeepOriginalOrientation: 0
    m_KeepOriginalPositionY: 1
    m_KeepOriginalPositionXZ: 0
    m_HeightFromFeet: 0
    m_Mirror: 0
  m_EditorCurves: []
  m_EulerEditorCurves: []
  m_HasGenericRootTransform: 0
  m_HasMotionFloatCurves: 0
  m_Events: []
